21

36 37
8
r 20 4 s
f 32 18 s
h 20 12 s
h 30 34 w
h 11 15 w
h 33 14 w
r 7 3 s
t 18 26 s
1 3

27 29
5
h 25 22 n
t 25 18 w
f 25 8 n
t 1 0 e
f 5 7 s
14 5

31 31
3
h 16 26 s
h 0 30 w
h 15 2 e
1 4

30 22
3
f 24 10 e
r 11 11 e
h 28 21 e
10 1

38 24
9
r 36 3 e
f 23 3 s
r 13 8 n
h 17 22 s
t 0 7 n
h 20 19 n
r 35 4 e
h 10 16 s
f 14 10 e
3 1

25 30
5
t 19 17 s
f 18 2 w
h 9 14 e
h 24 11 n
h 6 24 s
2 4

29 26
5
r 24 17 s
t 21 18 s
t 28 15 s
f 9 12 s
f 21 24 n
5 3

26 36
6
h 12 13 e
t 1 0 s
r 0 0 e
t 22 29 e
h 23 16 e
f 5 9 w
1 1

31 34
6
t 4 32 n
r 26 22 s
f 14 20 s
f 13 12 e
h 2 7 n
h 2 24 w
11 5

28 25
4
t 22 22 n
f 0 14 e
t 16 18 w
f 27 21 s
10 2

37 22
5
r 13 16 e
t 29 3 w
r 21 0 n
f 1 11 e
t 22 5 w
9 3

34 20
8
r 2 14 s
f 9 5 w
r 13 13 s
r 4 17 n
r 25 7 n
t 16 3 s
h 12 1 s
h 32 11 e
10 4

25 25
6
r 19 13 w
t 9 3 e
t 6 14 e
r 21 22 e
r 18 19 s
h 20 24 e
3 3

37 26
6
r 18 25 w
r 12 23 w
f 10 1 w
f 34 0 n
f 33 1 n
r 18 9 w
7 4

23 21
1
r 12 12 w
13 1

38 32
9
t 15 11 w
r 28 0 e
f 37 10 n
h 35 15 n
h 7 10 n
r 12 16 s
t 10 28 w
f 22 26 n
h 29 8 n
5 2

20 27
6
f 10 1 e
t 19 22 s
h 3 15 e
r 7 24 s
f 18 20 s
r 15 4 e
12 3

25 23
2
t 5 18 w
r 12 18 s
8 2

31 29
9
t 21 13 n
f 10 15 s
f 9 14 w
h 5 5 w
h 10 0 n
r 3 1 e
t 12 28 n
f 25 9 s
r 13 11 e
4 1

30 27
8
f 29 11 s
t 7 23 w
r 16 0 n
r 16 8 e
t 0 7 e
r 28 11 s
r 25 8 n
t 24 6 n
7 1

37 37
7
h 26 20 s
h 14 0 w
f 22 16 s
h 0 26 w
t 34 13 n
t 24 0 e
h 33 6 e
2 4
