25

10 7
10
h 0 3 n
r 4 3 e
t 2 5 w
r 8 0 n
r 3 5 e
f 0 2 e
f 3 3 s
f 0 0 e
f 6 6 e
f 6 2 w
17 13

10 7
8
t 2 0 s
t 7 2 n
h 6 5 e
f 2 4 n
r 3 6 s
r 2 3 n
f 1 4 e
t 7 3 e
12 20

8 5
4
h 3 3 e
r 5 0 s
h 1 2 n
f 4 4 s
11 7

10 8
5
r 9 6 n
f 7 2 w
r 6 4 s
f 2 7 w
f 5 2 w
9 15

8 8
10
h 5 6 e
f 3 4 e
f 6 7 s
r 3 4 n
f 3 6 w
r 1 1 w
h 5 0 w
h 6 7 w
f 3 0 w
f 2 1 s
17 5

6 7
6
h 5 5 n
f 4 5 n
f 2 1 w
h 0 5 e
f 1 6 w
h 5 5 n
15 6

9 9
8
t 4 8 e
f 1 5 e
t 1 4 s
f 0 8 s
f 8 1 e
h 7 5 w
r 8 2 w
t 1 6 e
7 16

6 8
10
h 4 0 e
f 0 2 n
t 1 0 e
h 2 4 e
h 0 7 w
f 1 5 w
f 1 2 e
r 5 7 w
t 3 3 n
r 1 3 w
3 8

6 6
8
t 4 3 n
r 0 4 s
h 0 2 e
f 0 1 s
f 1 5 s
h 0 5 n
h 2 0 w
f 4 2 e
6 13

7 6
2
t 1 5 w
h 6 5 e
20 3

5 7
4
h 3 6 w
f 2 6 s
h 4 1 w
t 2 0 n
13 16

8 7
7
h 3 3 n
h 1 2 w
f 7 1 e
r 0 2 n
t 3 1 w
f 2 5 s
r 5 6 s
3 9

8 5
3
r 0 0 n
t 2 4 e
h 7 0 w
10 2

5 7
1
r 3 4 n
8 3

10 7
5
f 6 0 e
r 0 4 w
r 8 5 w
f 7 4 e
t 2 6 e
20 20

10 7
10
h 1 0 w
h 4 5 e
f 7 6 n
h 7 4 w
r 5 6 n
h 8 5 n
r 4 3 e
r 2 4 s
r 6 0 e
r 2 3 e
7 13

9 8
3
h 3 6 n
r 7 6 e
r 3 6 s
3 4

5 7
5
f 4 6 s
h 4 1 s
r 4 3 n
h 2 6 s
r 0 0 s
16 18

5 7
2
r 4 2 n
h 3 5 n
14 4

10 7
2
f 0 1 w
r 8 3 w
4 20

9 9
8
f 4 3 n
f 5 3 e
h 0 4 e
r 8 1 s
h 8 3 n
r 6 6 w
f 1 5 n
t 7 1 w
18 12

8 6
5
h 3 4 s
h 2 4 w
h 0 5 e
r 3 5 w
r 5 3 n
2 16

8 10
1
f 5 5 w
10 13

6 6
1
h 0 3 s
16 15

9 5
1
f 3 1 w
3 5
