*** Darwin 2x20 ***
Turn = 0.
  01234567890123456789
0 ....h...f...........
1 ...........t........

Turn = 2.
  01234567890123456789
0 ........f...........
1 ....h......t........

Turn = 4.
  01234567890123456789
0 ........f...........
1 ....h......t........

Turn = 6.
  01234567890123456789
0 ........f...........
1 ....h......t........

Turn = 8.
  01234567890123456789
0 ........f...........
1 ....h......t........

Turn = 10.
  01234567890123456789
0 ........f...........
1 ....h......t........

Turn = 12.
  01234567890123456789
0 ........f...........
1 ....h......t........

Turn = 14.
  01234567890123456789
0 ........f...........
1 ....h......t........

Turn = 16.
  01234567890123456789
0 ........f...........
1 ....h......t........

Turn = 18.
  01234567890123456789
0 ........f...........
1 ....h......t........

Turn = 20.
  01234567890123456789
0 ........f...........
1 ....h......t........

Turn = 22.
  01234567890123456789
0 ........f...........
1 ....h......t........

Turn = 24.
  01234567890123456789
0 ........f...........
1 ....h......t........

Turn = 26.
  01234567890123456789
0 ........f...........
1 ....h......t........

Turn = 28.
  01234567890123456789
0 ........f...........
1 ....h......t........

Turn = 30.
  01234567890123456789
0 ........f...........
1 ....h......t........

Turn = 32.
  01234567890123456789
0 ........f...........
1 ....h......t........

Turn = 34.
  01234567890123456789
0 ........f...........
1 ....h......t........

Turn = 36.
  01234567890123456789
0 ........f...........
1 ....h......t........

Turn = 38.
  01234567890123456789
0 ........f...........
1 ....h......t........

*** Darwin 8x12 ***
Turn = 0.
  012345678901
0 ....t.......
1 r...........
2 ............
3 ........r...
4 ...t.......t
5 f...h....r..
6 ........ft.f
7 ........h...

Turn = 1.
  012345678901
0 r...t.......
1 ............
2 ............
3 .........r..
4 ...t.....r.t
5 f...........
6 ....h...ft.f
7 ........h...

Turn = 2.
  012345678901
0 r...t.......
1 ............
2 ............
3 .........rr.
4 ...t.......t
5 f...........
6 ........tt.f
7 ....h...h...

Turn = 3.
  012345678901
0 .r..t.......
1 ............
2 .........r..
3 ...........r
4 ...t.......t
5 f...........
6 ........tt.f
7 ....h...t...

Turn = 4.
  012345678901
0 ..r.t.......
1 .........r..
2 ............
3 ...........r
4 ...t.......t
5 f...........
6 ........tt.f
7 ....h...t...

*** Darwin 20x10 ***
Turn = 0.
  0123456789
0 ....h.....
1 ........t.
2 ..........
3 ....f.....
4 ..........
5 .r........
6 ..........
7 ......r...
8 ..........
9 ..........
0 ..........
1 ..........
2 ..........
3 ..........
4 ..........
5 ..........
6 ..........
7 ......f...
8 ..........
9 ..........

*** Darwin 13x16 ***
Turn = 0.
  0123456789012345
0 ................
1 ................
2 ................
3 h........r......
4 ................
5 ................
6 ................
7 ............r...
8 ................
9 ..r....f.....h..
0 ................
1 ................
2 ................

Turn = 4.
  0123456789012345
0 h...............
1 ................
2 ................
3 .............r..
4 ................
5 ..r..........h..
6 ................
7 ................
8 ................
9 .......f........
0 ................
1 ............r...
2 ................

Turn = 8.
  0123456789012345
0 h...............
1 ..r..........h..
2 ...............r
3 ................
4 ................
5 ................
6 ................
7 ................
8 ................
9 .......f........
0 ................
1 ................
2 ..........r.....

Turn = 12.
  0123456789012345
0 h...r........h.r
1 ................
2 ................
3 ................
4 ................
5 ................
6 ................
7 ................
8 ................
9 .......f........
0 ................
1 ................
2 ......r.........

Turn = 16.
  0123456789012345
0 h.......r....h..
1 ................
2 ................
3 ................
4 ...............r
5 ................
6 ................
7 ................
8 ................
9 .......f........
0 ................
1 ................
2 ..r.............

Turn = 20.
  0123456789012345
0 h...........rh..
1 ................
2 ................
3 ................
4 ................
5 ................
6 ................
7 ................
8 ...............r
9 .......f........
0 ................
1 r...............
2 ................

Turn = 24.
  0123456789012345
0 h...........rr..
1 ................
2 ................
3 ................
4 ................
5 ................
6 ................
7 r...............
8 ................
9 .......f........
0 ................
1 ................
2 ...............r

*** Darwin 2x13 ***
Turn = 0.
  0123456789012
0 .h..........f
1 f....hrrh..ff

Turn = 4.
  0123456789012
0 ....r.......f
1 fh...rrh...ff

Turn = 8.
  0123456789012
0 r.......r...f
1 frrh.......ff

Turn = 12.
  0123456789012
0 ..r........rr
1 rrrr.......ff

Turn = 16.
  0123456789012
0 r.....r..r.r.
1 rr.....r...ff

Turn = 20.
  0123456789012
0 r..r..r.r....
1 r........rrrf

Turn = 24.
  0123456789012
0 ....r....r...
1 r...rrr.r..rr

Turn = 28.
  0123456789012
0 r..r...r.....
1 ...rr.rrr.r..

Turn = 32.
  0123456789012
0 r....r.....r.
1 rrrrr.r......

Turn = 36.
  0123456789012
0 rr.rr.......r
1 .rrrr........

Turn = 40.
  0123456789012
0 .rrr...r.....
1 r..r.r..r...r

Turn = 44.
  0123456789012
0 rr.r.......rr
1 ....r..r.r..r

Turn = 48.
  0123456789012
0 .r..r..r.r.rr
1 ........r.rr.

*** Darwin 1x2 ***
Turn = 0.
  01
0 .h

Turn = 4.
  01
0 .h

Turn = 8.
  01
0 .h

Turn = 12.
  01
0 .h

Turn = 16.
  01
0 .h

Turn = 20.
  01
0 .h

Turn = 24.
  01
0 .h

Turn = 28.
  01
0 .h

Turn = 32.
  01
0 .h

Turn = 36.
  01
0 .h

Turn = 40.
  01
0 .h

Turn = 44.
  01
0 .h

Turn = 48.
  01
0 .h

Turn = 52.
  01
0 .h

*** Darwin 7x8 ***
Turn = 0.
  01234567
0 .....f..
1 ........
2 th..h...
3 rr......
4 ..t.....
5 ........
6 ........

Turn = 2.
  01234567
0 .....f..
1 ........
2 tt......
3 .r.r....
4 ..t.h...
5 ........
6 ........

Turn = 4.
  01234567
0 .....f..
1 ........
2 tt......
3 ...r.r..
4 ..t.....
5 ........
6 ....h...

Turn = 6.
  01234567
0 .....f..
1 ........
2 tt......
3 .....r.r
4 ..t.....
5 ........
6 ....h...

Turn = 8.
  01234567
0 .....f..
1 ........
2 tt......
3 ......r.
4 ..t....r
5 ........
6 ....h...

Turn = 10.
  01234567
0 .....f..
1 ......r.
2 tt......
3 ........
4 ..t.....
5 ........
6 ....h..r

Turn = 12.
  01234567
0 .....fr.
1 ........
2 tt......
3 ........
4 ..t.....
5 ........
6 ....h.r.

Turn = 14.
  01234567
0 .....f.r
1 ........
2 tt......
3 ........
4 ..t.....
5 ........
6 ....rr..

Turn = 16.
  01234567
0 .....f..
1 ........
2 tt.....r
3 ........
4 ..t.....
5 ........
6 ...r.r..

Turn = 18.
  01234567
0 .....f..
1 ........
2 tt......
3 ........
4 ..t....r
5 ........
6 .r.....r

Turn = 20.
  01234567
0 .....f..
1 ........
2 tt......
3 ........
4 ..t.....
5 .......r
6 r......r

Turn = 22.
  01234567
0 .....f..
1 ........
2 tt......
3 ........
4 ..t.....
5 .....r..
6 .r...r..

Turn = 24.
  01234567
0 .....f..
1 ........
2 tt......
3 ........
4 ..t.....
5 ...r....
6 ...rr...

Turn = 26.
  01234567
0 .....f..
1 ........
2 tt......
3 ........
4 ..t.r...
5 .r......
6 ...r....

Turn = 28.
  01234567
0 .....f..
1 ........
2 tt..r...
3 ........
4 ..t.....
5 r.......
6 .....r..

Turn = 30.
  01234567
0 ....rf..
1 ........
2 tt......
3 ........
4 ..t.....
5 ........
6 r......r

*** Darwin 20x6 ***
Turn = 0.
  012345
0 ......
1 ....r.
2 ......
3 ......
4 ......
5 ......
6 ......
7 ......
8 ......
9 ......
0 ......
1 .h....
2 ......
3 ......
4 ......
5 ......
6 ......
7 ......
8 ......
9 ......

*** Darwin 20x17 ***
Turn = 0.
  01234567890123456
0 ..............t..
1 .................
2 .................
3 ..t..............
4 .................
5 .................
6 .................
7 ...f............h
8 .......r.........
9 .................
0 ..............r..
1 .......r..r......
2 .................
3 ................r
4 .........f.......
5 ..........t......
6 .................
7 ..............h..
8 .................
9 .................

Turn = 9.
  01234567890123456
0 .......r......t..
1 .................
2 .......r.........
3 ..t..............
4 .................
5 .................
6 .................
7 ...f.............
8 .................
9 ...............r.
0 .................
1 .................
2 .................
3 .................
4 .........f......r
5 ..........t......
6 ................r
7 .....h...........
8 .................
9 ..............r..

Turn = 18.
  01234567890123456
0 ............rr.r.
1 .............r...
2 .................
3 ..t..............
4 .................
5 .................
6 .................
7 ...f.............
8 .................
9 .................
0 .................
1 .................
2 .................
3 .................
4 .........f.......
5 ..........t.....r
6 .................
7 h................
8 .................
9 .....r.....r.....

Turn = 27.
  01234567890123456
0 ....r..r.........
1 .................
2 .................
3 ..t..............
4 .................
5 .................
6 ................r
7 ...f.............
8 .................
9 ............r....
0 .............r...
1 .................
2 .................
3 .................
4 .........f.......
5 ..........t......
6 .................
7 r................
8 r................
9 ..r..............

Turn = 36.
  01234567890123456
0 ..............r..
1 r................
2 .................
3 ..t..............
4 r................
5 .................
6 .................
7 ...f.............
8 r................
9 .................
0 .................
1 .................
2 .................
3 .................
4 .........f.......
5 ..........t......
6 r................
7 .................
8 ............r....
9 .......r.....r...

Turn = 45.
  01234567890123456
0 .....r...........
1 .................
2 .................
3 ..t..............
4 .................
5 ....r............
6 ....r............
7 r.....r.r........
8 .................
9 .................
0 .................
1 .................
2 .................
3 .................
4 .........f.......
5 ..........t......
6 ..........t......
7 .................
8 .................
9 .......r........r

Turn = 54.
  01234567890123456
0 r.r..............
1 .................
2 .................
3 ..t..............
4 .................
5 .............r...
6 .............r...
7 ...............rr
8 .................
9 .................
0 .................
1 .................
2 .................
3 .................
4 .........f.......
5 ..........t......
6 ..........t......
7 .................
8 .................
9 r.......r........

*** Darwin 11x15 ***
Turn = 0.
  012345678901234
0 ...............
1 ...............
2 ...............
3 ....t..........
4 .......f.......
5 .............h.
6 ...............
7 ..t..f..f.r....
8 ....t..........
9 ...............
0 f..............

Turn = 10.
  012345678901234
0 ............rh.
1 ...............
2 ...............
3 ....t..........
4 .......f.......
5 ...............
6 ...............
7 ..t..f..f......
8 ....t..........
9 ...............
0 f..............

Turn = 20.
  012345678901234
0 ...............
1 ...............
2 ...............
3 ....t..........
4 .......f.......
5 ..............r
6 ...............
7 ..t..f..f......
8 ....t.......r..
9 ...............
0 f..............

Turn = 30.
  012345678901234
0 ...............
1 ...............
2 ...............
3 ....t..........
4 .......f.......
5 .............r.
6 ...............
7 ..t..f..f......
8 ....t..........
9 ...............
0 f.........r....

Turn = 40.
  012345678901234
0 ..............r
1 ...............
2 ...............
3 ....t..........
4 .......f.......
5 ...............
6 ...............
7 ..t..f..f......
8 ....t..........
9 ...............
0 rr.............

*** Darwin 12x16 ***
Turn = 0.
  0123456789012345
0 ..t.....r.tf....
1 ................
2 ....r.........t.
3 ................
4 ................
5 .....r..........
6 ..........r.....
7 ...h....f.......
8 ........f.......
9 .........r....h.
0 ....t...........
1 .......r........

Turn = 2.
  0123456789012345
0 ..t......rtt....
1 ................
2 ..............t.
3 ................
4 ....r.....r.....
5 ...h...r........
6 ................
7 ........f.......
8 ........f.......
9 .......r........
0 ....t...........
1 ........r.....h.

Turn = 4.
  0123456789012345
0 ..t......rr.r...
1 ................
2 ..........r...t.
3 ...h............
4 ................
5 .........r......
6 ....r...........
7 ........f.......
8 ........f.......
9 .....r..........
0 ....t...........
1 ..........r...h.

Turn = 6.
  0123456789012345
0 ..t.......r.r.r.
1 ...h............
2 .........r....t.
3 ................
4 ................
5 ...........r....
6 ................
7 ........f.......
8 ....r...f.......
9 ...r............
0 ....t...........
1 ............r.h.

Turn = 8.
  0123456789012345
0 ..th.......r..rr
1 ................
2 ..............t.
3 ................
4 .........r......
5 .............r..
6 ................
7 ........f.......
8 ........f.......
9 .r..t...........
0 ....t...........
1 .............rr.

Turn = 10.
  0123456789012345
0 ..th.........rr.
1 ................
2 ..............tt
3 ................
4 ................
5 ...............r
6 .........r......
7 ........f.......
8 ........f.......
9 r...t...........
0 ....t...........
1 .............r.r

Turn = 12.
  0123456789012345
0 ..tt...........r
1 .............r..
2 ..............tt
3 ................
4 ................
5 ................
6 ...............r
7 ........f.......
8 ........fr......
9 ....t..........r
0 ....t...........
1 r..........r....

Turn = 14.
  0123456789012345
0 ..tt..........r.
1 ................
2 .............ttt
3 ................
4 ................
5 ................
6 ................
7 ........f......r
8 ........f......r
9 ....t...........
0 ....t....r......
1 .r.......r......

Turn = 16.
  0123456789012345
0 ..tt........r...
1 ................
2 .............ttt
3 ................
4 ................
5 ................
6 ................
7 ........f.......
8 ........f....r.r
9 ....t...........
0 ....t.....r.....
1 ...r...r........

Turn = 18.
  0123456789012345
0 ..tt......r.....
1 ................
2 .............ttt
3 ................
4 ................
5 ................
6 ................
7 ........f.......
8 ........f..r....
9 ....t...........
0 ....t.......r..r
1 ....tr..........

Turn = 20.
  0123456789012345
0 ..tt....r.......
1 ................
2 .............ttt
3 ................
4 ................
5 ................
6 ................
7 ........f.......
8 ........fr......
9 ....t...........
0 ....t.........r.
1 ...rr..........r

Turn = 22.
  0123456789012345
0 ..tt..r.........
1 ................
2 .............ttt
3 ................
4 ................
5 ................
6 ................
7 ........f.......
8 ........r.......
9 ....t...r.......
0 ....t..........r
1 .rr..........r..

Turn = 24.
  0123456789012345
0 ..ttr...........
1 ................
2 .............ttt
3 ................
4 ................
5 ................
6 ................
7 ........f.......
8 ......r.........
9 ....t...........
0 ....t...........
1 rr......r..r...r

Turn = 26.
  0123456789012345
0 ..trr...........
1 ................
2 .............ttt
3 ................
4 ................
5 ................
6 ................
7 ........f.......
8 ....t...........
9 ....t...........
0 ....t...........
1 rr.....r.r.....r

Turn = 28.
  0123456789012345
0 ..tt............
1 ................
2 ....r........ttt
3 ................
4 ................
5 ................
6 ................
7 ........f.......
8 ....t...........
9 .r..t...........
0 ....t...........
1 .r...r.r.....r..

Turn = 30.
  0123456789012345
0 ..tt............
1 ................
2 .............ttt
3 ................
4 ....r...........
5 ................
6 ................
7 .r......f.......
8 ....t...........
9 ....t...........
0 ....t...........
1 ...rrr.....r....

Turn = 32.
  0123456789012345
0 ..tt............
1 ................
2 .............ttt
3 ................
4 ................
5 .r..............
6 ....r...........
7 ........f.......
8 ....t...........
9 ....t...........
0 ....r...........
1 ...rrr...r......

Turn = 34.
  0123456789012345
0 ..tt............
1 ................
2 .............ttt
3 .r..............
4 ................
5 ................
6 ................
7 ....r...f.......
8 ....r...........
9 ....t...........
0 ....t...........
1 ...rrr.r........

*** Darwin 6x19 ***
Turn = 0.
  0123456789012345678
0 ...................
1 ..................h
2 .......h...........
3 .......r.r..r......
4 .............h.....
5 .......h......f....

Turn = 2.
  0123456789012345678
0 ...................
1 ................h..
2 .......r...........
3 .......rr.r........
4 ...................
5 .........h...hf....

Turn = 4.
  0123456789012345678
0 ...................
1 ........r.....h....
2 .....r.............
3 .....r..r..........
4 ...................
5 ...........h.hf....

Turn = 6.
  0123456789012345678
0 ........r..........
1 ............h......
2 ...r...............
3 ...r..r............
4 ...................
5 ............hhf....

Turn = 8.
  0123456789012345678
0 ..........r........
1 ..........h........
2 .r.................
3 .r..r..............
4 ...................
5 ............hhf....

Turn = 10.
  0123456789012345678
0 ............r......
1 ........h..........
2 r..................
3 r.r................
4 ...................
5 ............hhf....

Turn = 12.
  0123456789012345678
0 r.............r....
1 r.....h............
2 ...................
3 r..................
4 ...................
5 ............hhf....

Turn = 14.
  0123456789012345678
0 r...............r..
1 r...h..............
2 r..................
3 ...................
4 ...................
5 ............hhf....

Turn = 16.
  0123456789012345678
0 .r................r
1 .rh................
2 .r.................
3 ...................
4 ...................
5 ............hhf....

Turn = 18.
  0123456789012345678
0 ...r...............
1 .rr...............r
2 ...r...............
3 ...................
4 ...................
5 ............hhf....

Turn = 20.
  0123456789012345678
0 .r...r.............
1 ....r..............
2 .....r.............
3 ..................r
4 ...................
5 ............hhf....

Turn = 22.
  0123456789012345678
0 r......r...........
1 ......r............
2 .......r...........
3 ...................
4 ...................
5 ............hhf...r

Turn = 24.
  0123456789012345678
0 .........r.........
1 ........r..........
2 r........r.........
3 ...................
4 ...................
5 ............hhf..r.

Turn = 26.
  0123456789012345678
0 ...........r.......
1 ..........r........
2 ...........r.......
3 ...................
4 r..................
5 ............hhfr...

Turn = 28.
  0123456789012345678
0 .............r.....
1 ............r......
2 .............r.....
3 ...................
4 ...................
5 r...........hhrr...

Turn = 30.
  0123456789012345678
0 ...............r...
1 ..............r....
2 ...............r...
3 ...............r...
4 ...................
5 ..r.........hh.r...

Turn = 32.
  0123456789012345678
0 .................r.
1 ...............rr..
2 .................r.
3 ...................
4 ...................
5 ....r.......hh...r.

Turn = 34.
  0123456789012345678
0 ...............r..r
1 ..................r
2 ..................r
3 ...................
4 ...................
5 ......r.....hh....r

Turn = 36.
  0123456789012345678
0 .............r....r
1 ...................
2 ..................r
3 ...................
4 ..................r
5 ........r...hh....r

Turn = 38.
  0123456789012345678
0 ...........r......r
1 ...................
2 ...................
3 ..................r
4 .................r.
5 ..........r.hh....r

Turn = 40.
  0123456789012345678
0 .........r........r
1 ...................
2 ...................
3 ................r.r
4 ...............r...
5 ...........rrr.....

Turn = 42.
  0123456789012345678
0 .......r...........
1 ..................r
2 ..................r
3 ..............r....
4 ............rr.....
5 ...........r.r.....

Turn = 44.
  0123456789012345678
0 .....r.............
1 ...................
2 ............r...r.r
3 ............r......
4 ...........r.......
5 .........r.r.......

Turn = 46.
  0123456789012345678
0 ...r........r......
1 ...................
2 ..............r....
3 ..........r........
4 .........r........r
5 .......r.r.........

Turn = 48.
  0123456789012345678
0 .r.........r.......
1 ...................
2 ............r......
3 ........r..........
4 .......r...........
5 .....r.r..........r

Turn = 50.
  0123456789012345678
0 r........r.........
1 ...................
2 ..........r........
3 ......r............
4 .....r.............
5 ...r.r..........r..

Turn = 52.
  0123456789012345678
0 .......r...........
1 ...................
2 r.......r..........
3 ....r..............
4 ...r...............
5 .r.r..........r....

*** Darwin 16x10 ***
Turn = 0.
  0123456789
0 ...r......
1 ..........
2 ..........
3 ..........
4 ..........
5 ..........
6 ..........
7 ..........
8 ..........
9 ..........
0 .....t....
1 ..........
2 .......fr.
3 ..........
4 ..........
5 ..........

*** Darwin 15x13 ***
Turn = 0.
  0123456789012
0 .............
1 ....r........
2 .............
3 .............
4 .............
5 .............
6 .............
7 .............
8 .............
9 .............
0 .............
1 .............
2 .............
3 .............
4 .............

Turn = 10.
  0123456789012
0 .r...........
1 .............
2 .............
3 .............
4 .............
5 .............
6 .............
7 .............
8 .............
9 .............
0 .............
1 .............
2 .............
3 .............
4 .............

*** Darwin 16x5 ***
Turn = 0.
  01234
0 .....
1 .....
2 .....
3 ff...
4 ....t
5 .....
6 .....
7 .....
8 .....
9 .....
0 .f...
1 .....
2 .....
3 ...f.
4 ...r.
5 .....

Turn = 2.
  01234
0 .....
1 .....
2 .....
3 ff...
4 ....t
5 .....
6 .....
7 .....
8 .....
9 .....
0 .f...
1 .....
2 .....
3 ...f.
4 .r...
5 .....

Turn = 4.
  01234
0 .....
1 .....
2 .....
3 ff...
4 ....t
5 .....
6 .....
7 .....
8 .....
9 .....
0 .f...
1 .....
2 .....
3 ...f.
4 r....
5 .....

Turn = 6.
  01234
0 .....
1 .....
2 .....
3 ff...
4 ....t
5 .....
6 .....
7 .....
8 .....
9 .....
0 .f...
1 .....
2 r....
3 ...f.
4 .....
5 .....

Turn = 8.
  01234
0 .....
1 .....
2 .....
3 ff...
4 ....t
5 .....
6 .....
7 .....
8 .....
9 .....
0 rf...
1 .....
2 .....
3 ...f.
4 .....
5 .....

Turn = 10.
  01234
0 .....
1 .....
2 .....
3 ff...
4 ....t
5 .....
6 .....
7 .....
8 r....
9 .....
0 .f...
1 .....
2 .....
3 ...f.
4 .....
5 .....

Turn = 12.
  01234
0 .....
1 .....
2 .....
3 ff...
4 ....t
5 .....
6 r....
7 .....
8 .....
9 .....
0 .f...
1 .....
2 .....
3 ...f.
4 .....
5 .....

Turn = 14.
  01234
0 .....
1 .....
2 .....
3 ff...
4 r...t
5 .....
6 .....
7 .....
8 .....
9 .....
0 .f...
1 .....
2 .....
3 ...f.
4 .....
5 .....

Turn = 16.
  01234
0 .....
1 .....
2 .....
3 rf...
4 r...t
5 .....
6 .....
7 .....
8 .....
9 .....
0 .f...
1 .....
2 .....
3 ...f.
4 .....
5 .....

Turn = 18.
  01234
0 .....
1 .....
2 .....
3 rf...
4 ..r.t
5 .....
6 .....
7 .....
8 .....
9 .....
0 .f...
1 .....
2 .....
3 ...f.
4 .....
5 .....

Turn = 20.
  01234
0 .....
1 r....
2 .....
3 .f...
4 ...rr
5 .....
6 .....
7 .....
8 .....
9 .....
0 .f...
1 .....
2 .....
3 ...f.
4 .....
5 .....

Turn = 22.
  01234
0 r....
1 .....
2 ....r
3 .f.r.
4 .....
5 .....
6 .....
7 .....
8 .....
9 .....
0 .f...
1 .....
2 .....
3 ...f.
4 .....
5 .....

Turn = 24.
  01234
0 r...r
1 ...r.
2 .....
3 .f...
4 .....
5 .....
6 .....
7 .....
8 .....
9 .....
0 .f...
1 .....
2 .....
3 ...f.
4 .....
5 .....

Turn = 26.
  01234
0 ..rrr
1 .....
2 .....
3 .f...
4 .....
5 .....
6 .....
7 .....
8 .....
9 .....
0 .f...
1 .....
2 .....
3 ...f.
4 .....
5 .....

Turn = 28.
  01234
0 .....
1 ..rr.
2 ....r
3 .f...
4 .....
5 .....
6 .....
7 .....
8 .....
9 .....
0 .f...
1 .....
2 .....
3 ...f.
4 .....
5 .....

Turn = 30.
  01234
0 .....
1 .....
2 .....
3 .frr.
4 ....r
5 .....
6 .....
7 .....
8 .....
9 .....
0 .f...
1 .....
2 .....
3 ...f.
4 .....
5 .....

Turn = 32.
  01234
0 .....
1 .....
2 .....
3 .f...
4 .....
5 ..rr.
6 ....r
7 .....
8 .....
9 .....
0 .f...
1 .....
2 .....
3 ...f.
4 .....
5 .....

Turn = 34.
  01234
0 .....
1 .....
2 .....
3 .f...
4 .....
5 .....
6 .....
7 ..rr.
8 ....r
9 .....
0 .f...
1 .....
2 .....
3 ...f.
4 .....
5 .....

Turn = 36.
  01234
0 .....
1 .....
2 .....
3 .f...
4 .....
5 .....
6 .....
7 .....
8 .....
9 ..rr.
0 .f..r
1 .....
2 .....
3 ...f.
4 .....
5 .....

Turn = 38.
  01234
0 .....
1 .....
2 .....
3 .f...
4 .....
5 .....
6 .....
7 .....
8 .....
9 .....
0 .f...
1 ..rr.
2 ....r
3 ...f.
4 .....
5 .....

Turn = 40.
  01234
0 .....
1 .....
2 .....
3 .f...
4 .....
5 .....
6 .....
7 .....
8 .....
9 .....
0 .f...
1 .....
2 ...r.
3 ..rr.
4 ....r
5 .....

Turn = 42.
  01234
0 .....
1 .....
2 .....
3 .f...
4 .....
5 .....
6 .....
7 .....
8 .....
9 .....
0 .f...
1 .....
2 ....r
3 ..r..
4 .....
5 ..r.r

Turn = 44.
  01234
0 .....
1 .....
2 .....
3 .f...
4 .....
5 .....
6 .....
7 .....
8 .....
9 .....
0 .f...
1 ....r
2 .....
3 r....
4 ....r
5 .r...

Turn = 46.
  01234
0 .....
1 .....
2 .....
3 .f...
4 .....
5 .....
6 .....
7 .....
8 .....
9 ....r
0 .f...
1 .....
2 r...r
3 .....
4 .....
5 r....

Turn = 48.
  01234
0 .....
1 .....
2 .....
3 .f...
4 .....
5 .....
6 .....
7 ....r
8 .....
9 .....
0 rf..r
1 .....
2 .....
3 r....
4 .....
5 .....

Turn = 50.
  01234
0 .....
1 .....
2 .....
3 .f...
4 .....
5 ....r
6 .....
7 .....
8 r...r
9 .....
0 .f...
1 r....
2 .....
3 .....
4 .....
5 .....

Turn = 52.
  01234
0 .....
1 .....
2 .....
3 .f..r
4 .....
5 .....
6 r...r
7 .....
8 .....
9 r....
0 .f...
1 .....
2 .....
3 .....
4 .....
5 .....

Turn = 54.
  01234
0 .....
1 ....r
2 .....
3 .f...
4 r...r
5 .....
6 .....
7 r....
8 .....
9 .....
0 .f...
1 .....
2 .....
3 .....
4 .....
5 .....

*** Darwin 15x18 ***
Turn = 0.
  012345678901234567
0 ..................
1 ..........h.......
2 ......h...........
3 ..................
4 .................h
5 ................f.
6 .t.........t......
7 ....r...........f.
8 ..........h.......
9 ..................
0 .....f............
1 ........h.........
2 ..................
3 ...............f..
4 ....f.............

Turn = 3.
  012345678901234567
0 ..........h.......
1 .................h
2 ..................
3 ..................
4 ....r.............
5 ......h.........f.
6 .t.........t......
7 ................f.
8 .......h..........
9 ..................
0 .....f............
1 .....h............
2 ..................
3 ...............f..
4 ....f.............

Turn = 6.
  012345678901234567
0 ..........h......h
1 ....r.............
2 ..................
3 ..................
4 ..................
5 ................f.
6 .t.........t......
7 ................f.
8 ....h.h...........
9 ..................
0 .....f............
1 ..h...............
2 ..................
3 ...............f..
4 ....f.............

Turn = 9.
  012345678901234567
0 .....r....h......h
1 ..................
2 ..................
3 ..................
4 ..................
5 ................f.
6 .t.........t......
7 ................f.
8 .h................
9 ..................
0 .....f............
1 h.....h...........
2 ..................
3 ...............f..
4 ....f.............

Turn = 12.
  012345678901234567
0 ........r.h......h
1 ..................
2 ..................
3 ..................
4 ..................
5 ................f.
6 .t.........t......
7 ................f.
8 h.................
9 ..................
0 .....f............
1 h.................
2 ..................
3 ...............f..
4 ....f.h...........

Turn = 15.
  012345678901234567
0 .........rr......h
1 ..................
2 ..................
3 ..................
4 ..................
5 ................f.
6 .t.........t......
7 ................f.
8 h.................
9 ..................
0 .....f............
1 h.................
2 ..................
3 ...............f..
4 ....f.h...........

Turn = 18.
  012345678901234567
0 ............r....h
1 ..................
2 ..................
3 .........r........
4 ..................
5 ................f.
6 .t.........t......
7 ................f.
8 h.................
9 ..................
0 .....f............
1 h.................
2 ..................
3 ...............f..
4 ....f.h...........

Turn = 21.
  012345678901234567
0 ...............r.h
1 ..................
2 ..................
3 ..................
4 ..................
5 ................f.
6 .t.......r.t......
7 ................f.
8 h.................
9 ..................
0 .....f............
1 h.................
2 ..................
3 ...............f..
4 ....f.h...........

Turn = 24.
  012345678901234567
0 ................rr
1 ..................
2 ..................
3 ..................
4 ..................
5 ................f.
6 .t.........t......
7 ................f.
8 h.................
9 .........r........
0 .....f............
1 h.................
2 ..................
3 ...............f..
4 ....f.h...........

Turn = 27.
  012345678901234567
0 ................r.
1 .................r
2 ..................
3 ..................
4 ..................
5 ................f.
6 .t.........t......
7 ................f.
8 h.................
9 ..................
0 .....f............
1 h.................
2 .........r........
3 ...............f..
4 ....f.h...........

*** Darwin 15x13 ***
Turn = 0.
  0123456789012
0 ...r.........
1 .........f...
2 .............
3 ....h..r...r.
4 ...t...h.....
5 ...r.........
6 .............
7 .............
8 ....r........
9 .............
0 ....t........
1 ...........r.
2 .t.........r.
3 ..........h..
4 .............

Turn = 1.
  0123456789012
0 ..r..........
1 .........f...
2 .......r.....
3 ............r
4 ...rh........
5 ...r...h.....
6 .............
7 .............
8 ...r.........
9 .............
0 ....t........
1 ............r
2 .t...........
3 ...........r.
4 ..........h..

Turn = 2.
  0123456789012
0 .r...........
1 .......r.f...
2 .............
3 ............r
4 ...r.........
5 ...rh........
6 .......h.....
7 .............
8 ..r..........
9 .............
0 ....t........
1 ............r
2 .t...........
3 .............
4 ..........hr.

Turn = 3.
  0123456789012
0 r......r.....
1 .........f...
2 .............
3 .............
4 ....r.......r
5 ...r.........
6 ....r........
7 .......h.....
8 .r...........
9 .............
0 ....t........
1 .............
2 .t..........r
3 .............
4 ..........hr.

Turn = 4.
  0123456789012
0 r......r.....
1 .........f...
2 .............
3 .............
4 .....r.......
5 ....r.......r
6 .............
7 ....r........
8 r......h.....
9 .............
0 ....t........
1 .............
2 .t...........
3 ............r
4 ..........rr.

Turn = 5.
  0123456789012
0 r.....r......
1 .........f...
2 .............
3 .............
4 ......r......
5 .....r.......
6 ............r
7 .............
8 r...r........
9 .......h.....
0 ....t........
1 .............
2 .t...........
3 .............
4 ..........rrr

Turn = 6.
  0123456789012
0 r....r.......
1 .........f...
2 .............
3 .............
4 .......r.....
5 ......r......
6 .............
7 r...........r
8 .............
9 ....r........
0 ....t..h.....
1 .............
2 .t...........
3 .............
4 .........r.rr

Turn = 7.
  0123456789012
0 r...r........
1 .........f...
2 .............
3 .............
4 ........r....
5 .......r.....
6 r............
7 .............
8 ............r
9 ....r........
0 .....r.......
1 .......h.....
2 .t...........
3 .............
4 ........r..rr

Turn = 8.
  0123456789012
0 .r.r.........
1 .........f...
2 .............
3 .............
4 .........r...
5 r.......r....
6 .............
7 .............
8 .............
9 ............r
0 ....r.r......
1 .............
2 .t.....h.....
3 ...........r.
4 .......r....r

Turn = 9.
  0123456789012
0 ..rr.........
1 .........f...
2 .............
3 .............
4 r.........r..
5 .........r...
6 .............
7 .............
8 .............
9 .............
0 .......r....r
1 ....r........
2 .t.........r.
3 .......h.....
4 ......r.....r

Turn = 10.
  0123456789012
0 ..r..........
1 ...r.....f...
2 .............
3 r............
4 ...........r.
5 ..........r..
6 .............
7 .............
8 .............
9 .............
0 ........r....
1 ...........rr
2 .t..r........
3 ............r
4 .....r.h.....

Turn = 11.
  0123456789012
0 .............
1 ..r......f...
2 r..r.........
3 .............
4 ............r
5 ...........r.
6 .............
7 .............
8 .............
9 .............
0 .........r.r.
1 .............
2 .t..........r
3 ....r.......r
4 ....r..h.....

Turn = 12.
  0123456789012
0 .............
1 r........f...
2 ..r..........
3 ...r.........
4 ............r
5 ............r
6 .............
7 .............
8 .............
9 ...........r.
0 ..........r..
1 .............
2 .t..........r
3 ....r......r.
4 ...r...h.....

Turn = 13.
  0123456789012
0 r............
1 .........f...
2 .............
3 ..r..........
4 ...r........r
5 ............r
6 .............
7 .............
8 ...........r.
9 .............
0 ...........r.
1 .............
2 .t.........r.
3 .....r....r..
4 ..r....h.....

Turn = 14.
  0123456789012
0 r............
1 .........f...
2 .............
3 .............
4 ..r.........r
5 ...r........r
6 .............
7 ...........r.
8 .............
9 .............
0 ............r
1 .............
2 .t........r..
3 ......r..r...
4 .r.....h.....

Turn = 15.
  0123456789012
0 .r...........
1 .........f...
2 .............
3 .............
4 ............r
5 ..r.........r
6 ...r.......r.
7 .............
8 .............
9 .............
0 ............r
1 .............
2 .t.......r...
3 .......rr....
4 r......h.....

Turn = 16.
  0123456789012
0 ..r..........
1 .........f...
2 .............
3 .............
4 ...........rr
5 ...........r.
6 ..r..........
7 ...r.........
8 .............
9 ............r
0 .............
1 .............
2 .t......r....
3 .......rr....
4 r......h.....

Turn = 17.
  0123456789012
0 ...r.........
1 .........f...
2 .............
3 ............r
4 ..........rr.
5 .............
6 .............
7 ..r..........
8 ...r........r
9 .............
0 .............
1 .............
2 .t.....rr....
3 r......r.....
4 .......h.....

Turn = 18.
  0123456789012
0 ....r........
1 .........f...
2 ............r
3 ...........r.
4 .........r...
5 .............
6 .............
7 ............r
8 ..r..........
9 ...r.........
0 .............
1 ........r....
2 rt....r......
3 ........r....
4 .......h.....

Turn = 19.
  0123456789012
0 .....r.......
1 .........f..r
2 ...........r.
3 .............
4 ........r....
5 .............
6 ............r
7 .............
8 .............
9 ..r..........
0 ...r....r....
1 r............
2 .t...r.......
3 .........r...
4 .......h.....

Turn = 20.
  0123456789012
0 ......r.....r
1 .........f.r.
2 .............
3 .............
4 .......r.....
5 ............r
6 .............
7 .............
8 .............
9 ........r....
0 r.r..........
1 ...r.........
2 .t..r........
3 ..........r..
4 .......h.....

Turn = 21.
  0123456789012
0 .......r...rr
1 .........f...
2 .............
3 .............
4 ......r.....r
5 .............
6 .............
7 .............
8 ........r....
9 r............
0 .............
1 ..r..........
2 .t.rr........
3 ...........r.
4 .......h.....

Turn = 22.
  0123456789012
0 ........r..rr
1 .........f...
2 .............
3 ............r
4 .....r.......
5 .............
6 .............
7 ........r....
8 r............
9 .............
0 .............
1 ....r........
2 .tr..........
3 ...r........r
4 .......h.....

Turn = 23.
  0123456789012
0 .........rr.r
1 .........f...
2 ............r
3 .............
4 ....r........
5 .............
6 ........r....
7 r............
8 .............
9 .............
0 ....r........
1 .............
2 .t...........
3 ..r.........r
4 ...r...h.....

Turn = 24.
  0123456789012
0 .........rr.r
1 .........f..r
2 .............
3 .............
4 ...r.........
5 ........r....
6 r............
7 .............
8 .............
9 ....r........
0 .............
1 .............
2 .t...........
3 .............
4 ..rr...h....r

Turn = 25.
  0123456789012
0 .........r..r
1 ........r.r.r
2 .............
3 .............
4 ..r.....r....
5 r............
6 .............
7 .............
8 ....r........
9 .............
0 .............
1 .............
2 .t...........
3 .............
4 ..r.r..h....r

Turn = 26.
  0123456789012
0 ............r
1 .......r.r..r
2 ..........r..
3 ........r....
4 rr...........
5 .............
6 .............
7 ....r........
8 .............
9 .............
0 .............
1 .............
2 .t...........
3 .............
4 ...r.r.h...r.

Turn = 27.
  0123456789012
0 ............r
1 ......r......
2 ........rr..r
3 r.........r..
4 r............
5 .............
6 ....r........
7 .............
8 .............
9 .............
0 .............
1 .............
2 .t...........
3 .............
4 ....r.rh..r..

Turn = 28.
  0123456789012
0 ...........r.
1 .....r..r....
2 r............
3 .........r..r
4 r.........r..
5 ....r........
6 .............
7 .............
8 .............
9 .............
0 .............
1 .............
2 .t...........
3 .............
4 .....rrr.r...

Turn = 29.
  0123456789012
0 ........r.r..
1 r...r........
2 .............
3 .............
4 ....r....r..r
5 r.........r..
6 .............
7 .............
8 .............
9 .............
0 .............
1 .............
2 .t...........
3 .............
4 .....rrrr....

Turn = 30.
  0123456789012
0 r.......rr...
1 ...r.........
2 .............
3 ....r........
4 .............
5 .........r..r
6 r.........r..
7 .............
8 .............
9 .............
0 .............
1 .............
2 .t...........
3 .....rr......
4 .......rr....

Turn = 31.
  0123456789012
0 r.......rr...
1 ..r..........
2 ....r........
3 .............
4 .............
5 .............
6 .........r..r
7 r.........r..
8 .............
9 .............
0 .............
1 .............
2 .t...rr......
3 ........r....
4 ......r......

Turn = 32.
  0123456789012
0 r............
1 .r..r...rr...
2 .............
3 .............
4 .............
5 .............
6 .............
7 .........r..r
8 r.........r..
9 .............
0 .............
1 .....rr......
2 .t......r....
3 .............
4 .....r.......

Turn = 33.
  0123456789012
0 r...r........
1 r............
2 ........rr...
3 .............
4 .............
5 .............
6 .............
7 .............
8 .........r..r
9 r.........r..
0 .....rr......
1 ........r....
2 .t...........
3 .............
4 ....r........

Turn = 34.
  0123456789012
0 r...r........
1 r............
2 .............
3 ........rr...
4 .............
5 .............
6 .............
7 .............
8 .............
9 .....rr..r..r
0 r.......r.r..
1 .............
2 .t...........
3 .............
4 ...r.........

Turn = 35.
  0123456789012
0 r....r.......
1 r............
2 .............
3 .............
4 ........rr...
5 .............
6 .............
7 .............
8 .....rr......
9 ........r....
0 .........r..r
1 r.........r..
2 .t...........
3 .............
4 ..r..........

Turn = 36.
  0123456789012
0 r.....r......
1 .r...........
2 .............
3 .............
4 .............
5 ........rr...
6 .............
7 .....rr......
8 ........r....
9 .............
0 .............
1 .........r..r
2 rt........r..
3 .............
4 .r...........

Turn = 37.
  0123456789012
0 .......r.....
1 r.r..........
2 .............
3 .............
4 .............
5 .............
6 .....rr.rr...
7 ........r....
8 .............
9 .............
0 .............
1 .............
2 .t.......r..r
3 r.........r..
4 r............

Turn = 38.
  0123456789012
0 ........r....
1 ...r.........
2 r............
3 .............
4 .............
5 .....rr......
6 ........r....
7 ........rr...
8 .............
9 .............
0 .............
1 .............
2 .t...........
3 r........r..r
4 r.........r..

Turn = 39.
  0123456789012
0 .........r...
1 ....r........
2 .............
3 r............
4 .....rr......
5 .............
6 .......r.....
7 .......r.....
8 .........r...
9 .............
0 .............
1 .............
2 .t...........
3 r............
4 r........rr.r

Turn = 40.
  0123456789012
0 ..........r..
1 .....r.......
2 .............
3 .....rr......
4 r............
5 .............
6 ......r......
7 ......r......
8 .............
9 .........r...
0 .............
1 .............
2 .t...........
3 r............
4 r........r.rr

Turn = 41.
  0123456789012
0 ...........r.
1 ......r......
2 .....rr......
3 .............
4 .............
5 r............
6 .....r.......
7 .....r.......
8 .............
9 .............
0 .........r...
1 .............
2 .t...........
3 r............
4 r.........rrr

Turn = 42.
  0123456789012
0 ............r
1 .....rrr.....
2 .............
3 .............
4 .............
5 .............
6 r...r........
7 ....r........
8 .............
9 .............
0 .............
1 .........r...
2 .t...........
3 r............
4 .r........rrr

Turn = 43.
  0123456789012
0 .....rr.....r
1 ........r....
2 .............
3 .............
4 .............
5 .............
6 ...r.........
7 r..r.........
8 .............
9 .............
0 .............
1 .............
2 .t.......r...
3 .r...........
4 ..r.......rrr

Turn = 44.
  0123456789012
0 .....rr.....r
1 .........r...
2 .............
3 .............
4 .............
5 .............
6 ..r..........
7 ..r..........
8 r............
9 .............
0 .............
1 .............
2 .t...........
3 ..r......r..r
4 ...r......rr.

Turn = 45.
  0123456789012
0 ....rr.....r.
1 ..........r..
2 .............
3 .............
4 .............
5 .............
6 .r...........
7 .r...........
8 .............
9 r............
0 .............
1 .............
2 .t..........r
3 ...r.........
4 ....r....rrr.

Turn = 46.
  0123456789012
0 ...rr.....r..
1 ...........r.
2 .............
3 .............
4 .............
5 .............
6 r............
7 r............
8 .............
9 .............
0 r............
1 ............r
2 .t...........
3 ....r........
4 .....r...rrr.

Turn = 47.
  0123456789012
0 ..rr.....r...
1 ............r
2 .............
3 .............
4 .............
5 .............
6 r............
7 r............
8 .............
9 .............
0 ............r
1 r............
2 .t...........
3 .....r.......
4 ......r..rrr.

Turn = 48.
  0123456789012
0 .rr.....r....
1 ............r
2 .............
3 .............
4 .............
5 r............
6 .............
7 .............
8 r............
9 ............r
0 .............
1 .............
2 rt...........
3 ......r......
4 .......r.rrr.

*** Darwin 6x12 ***
Turn = 0.
  012345678901
0 ...........h
1 .rhf..h.f...
2 r.......f...
3 ........h...
4 .rr...r.....
5 ............

Turn = 6.
  012345678901
0 rrr..h......
1 ...f...hf...
2 r.....r.f...
3 ...........h
4 r...........
5 ............

Turn = 12.
  012345678901
0 r..r........
1 rr.f...hf...
2 ..r.r......r
3 ...........h
4 ............
5 .......r....

Turn = 18.
  012345678901
0 .r.......r..
1 ...f...hf...
2 ........rr..
3 ............
4 ............
5 r.rrr.....r.

Turn = 24.
  012345678901
0 ..rr...r...r
1 .r.r...hf...
2 ............
3 ............
4 ............
5 r...r....r.r

*** Darwin 12x13 ***
Turn = 0.
  0123456789012
0 .............
1 f...h........
2 ...r.......f.
3 ......h.....h
4 .............
5 .....hr......
6 .............
7 .............
8 ...r.........
9 h............
0 ...f.........
1 .....t.......

Turn = 5.
  0123456789012
0 .....r.......
1 f............
2 ...........f.
3 .............
4 h..r.........
5 ....r........
6 ....r........
7 .............
8 ........r...h
9 .....h.......
0 ...f.........
1 .....t.......

Turn = 10.
  0123456789012
0 ..........r..
1 f............
2 h..........f.
3 r............
4 .............
5 r............
6 .............
7 .............
8 ............r
9 .............
0 ...f.t.......
1 ....tt......h

Turn = 15.
  0123456789012
0 r............
1 rr...........
2 ...........fr
3 .............
4 .............
5 .............
6 r............
7 .............
8 .............
9 .............
0 ...f.t.....r.
1 ....tt....r..

Turn = 20.
  0123456789012
0 ....r........
1 ......r......
2 ...........f.
3 .............
4 r............
5 .............
6 .............
7 ............r
8 .............
9 .............
0 ...f.tr......
1 r...trr......

*** Darwin 9x11 ***
Turn = 0.
  01234567890
0 .f.........
1 ....h......
2 ......f....
3 .........t.
4 ......r....
5 r..t...h...
6 ...........
7 .r.h.......
8 ......f....

Turn = 4.
  01234567890
0 .f.........
1 r..........
2 ......f....
3 .........t.
4 ..........r
5 r..th.....h
6 ...........
7 .......h...
8 ......f....

Turn = 8.
  01234567890
0 r.r........
1 r.........r
2 ......f....
3 .........t.
4 ...........
5 ...tt.....h
6 ...........
7 ..........h
8 ......f....

Turn = 12.
  01234567890
0 .r....r....
1 r.........r
2 ......f....
3 .........t.
4 ...........
5 ...tt.....h
6 ...........
7 ..........h
8 ......f....

Turn = 16.
  01234567890
0 ..r..r....r
1 ...........
2 ......f....
3 .........t.
4 ..........r
5 ...tt.....r
6 ...........
7 ..........h
8 ......f....

Turn = 20.
  01234567890
0 ......r.rr.
1 ...........
2 ......f....
3 .........t.
4 ...........
5 ...tt..r...
6 ..........r
7 ..........h
8 ......f....
